Estimators · Econometrics
…
using CSV, RDatasets, Econometrics
We can load the PSID dataset from the Ecdat R package.

data = RDatasets.dataset("Ecdat", "PSID")
data = data[data.Earnings .> 0 .&
            data.Kids .< 98,:] # Only those with earnings and valid number of kids

3652×8 DataFrame
  Row │ IntNum  PersNum  Age    Educatn  Earnings  Hours  Kids   Married
      │ Int32   Int32    Int32  Int32?   Int32     Int32  Int32  Cat…
──────┼────────────────────────────────────────────────────────────────────
    1 │      4        4     39       12     77250   2940      2  married
    2 │      4        6     35       12     12000   2040      2  divorced
    3 │      4        7     33       12      8000    693      1  married
    4 │      4      173     39       10     15000   1904      2  married
    5 │      5        2     47        9      6500   1683      5  married
    6 │      6        4     44       12      6500   2024      2  married
    7 │      6      172     38       16      7000   1144      3  married
    8 │      7        4     38        9      5000   2080      4  divorced
  ⋮   │   ⋮        ⋮       ⋮       ⋮        ⋮        ⋮      ⋮        ⋮
 3646 │   9285        4     41        8      1800    410     98  divorced
 3647 │   9286        2     45       12     20080   2040      2  divorced
 3648 │   9292        2     41        6     13000   2448      5  married
 3649 │   9297        2     42        2      3000   1040      4  married
 3650 │   9302        1     37        8     22045   2793     98  divorced
 3651 │   9305        2     40        6       134     30      3  married
 3652 │   9306        2     37       17     33000   2423      4  married
                                                          3637 rows omitted
…
vcov(model, HC4)

4×4 Hermitian{Float64, Matrix{Float64}}:
  0.000307226  -1.66052e-8   -1.61533e-5    2.09058e-7
 -1.66052e-8    2.59567e-10   6.43482e-10  -8.60518e-12
 -1.61533e-5    6.43482e-10   8.53731e-7   -1.11003e-8
  2.09058e-7   -8.60518e-12  -1.11003e-8    1.44993e-10
Longitudinal Data
Longitudinal data is when a sample contains repeated measurements of the unit of observation. This kind of data allows for various estimators that make use of such a structure.
Example,

data = RDatasets.dataset("Ecdat", "Crime") |>
  (data -> select(data, [:County, :Year, :CRMRTE, :PrbConv, :AvgSen, :PrbPris]))

630×6 DataFrame
 Row │ County  Year   CRMRTE     PrbConv   AvgSen   PrbPris
     │ Int32   Int32  Float64    Float64   Float64  Float64
─────┼───────────────────────────────────────────────────────
   1 │      1     81  0.0398849  0.402062     5.61  0.472222
   2 │      1     82  0.0383449  0.433005     5.59  0.506993
   3 │      1     83  0.0303048  0.525703     5.8   0.479705
   4 │      1     84  0.0347259  0.604706     6.89  0.520104
   5 │      1     85  0.036573   0.578723     6.55  0.497059
   6 │      1     86  0.0347524  0.512324     6.9   0.439863
   7 │      1     87  0.0356036  0.527596     6.71  0.43617
   8 │      3     81  0.0163921  0.869048     8.45  0.465753
  ⋮  │   ⋮       ⋮        ⋮         ⋮         ⋮        ⋮
 624 │    197     81  0.0178621  1.06098     11.35  0.356322
 625 │    197     82  0.0180711  0.545455     6.64  0.363636
 626 │    197     83  0.0155747  0.480392     7.77  0.428571
 627 │    197     84  0.0136619  1.41026     10.11  0.372727
 628 │    197     85  0.0130857  0.830769     5.96  0.333333
 629 │    197     86  0.012874   2.25         7.68  0.244444
 630 │    197     87  0.0141928  1.18293     12.23  0.360825
                                             615 rows omitted
…
data = CSV.read(joinpath(pkgdir(Econometrics), "data", "insure.csv"), DataFrame) |>
   (data -> select(data, [:insure, :age, :male, :nonwhite, :site])) |>
   dropmissing |>
   (data -> transform!(data, [:insure, :site] .=> categorical, renamecols = false))

615×5 DataFrame
 Row │ insure     age      male   nonwhite  site
     │ Cat…       Float64  Int64  Int64     Cat…
─────┼───────────────────────────────────────────
   1 │ Indemnity  73.7221      0         0  2
   2 │ Prepaid    27.8959      0         0  2
   3 │ Indemnity  37.5414      0         0  1
   4 │ Prepaid    23.6413      0         1  3
   5 │ Prepaid    29.6838      0         0  2
   6 │ Prepaid    39.4689      0         0  2
   7 │ Uninsure   63.102       0         1  3
   8 │ Prepaid    69.8398      0         0  1
  ⋮  │     ⋮         ⋮       ⋮       ⋮       ⋮
 609 │ Prepaid    69.9877      0         0  1
 610 │ Prepaid    71.5209      0         0  3
 611 │ Prepaid    63.4168      0         0  2
 612 │ Prepaid    40.3532      0         1  1
 613 │ Prepaid    55.3237      1         0  3
 614 │ Prepaid    27.9836      1         0  3
 615 │ Prepaid    30.59        1         0  3
                                 600 rows omitted
…
data = RDatasets.dataset("Ecdat", "Kakadu") |>
       (data -> select(data, [:RecParks, :Sex, :Age, :Schooling]))
data.RecParks = convert(Vector{Int}, data.RecParks)
data.RecParks = levels!(categorical(data.RecParks, ordered = true, compress = true), collect(1:5))
data

1827×4 DataFrame
  Row │ RecParks  Sex     Age    Schooling
      │ Cat…      Cat…    Int32  Int32
──────┼────────────────────────────────────
    1 │ 3         male       27          3
    2 │ 5         female     32          4
    3 │ 4         male       32          4
    4 │ 1         female     70          6
    5 │ 2         male       32          5
    6 │ 3         male       47          6
    7 │ 1         male       42          5
    8 │ 5         female     70          3
  ⋮   │    ⋮        ⋮       ⋮        ⋮
 1821 │ 4         male       21          5
 1822 │ 3         male       21          3
 1823 │ 3         male       52          4
 1824 │ 2         female     21          3
 1825 │ 5         female     21          2
 1826 │ 1         female     21          4
 1827 │ 4         male       21          5
                          1812 rows omitted
…
